Materi (R) Data Analitik - Topik 1 Data Import
…
#> Identifikasi nama sheet
penguins_torgersen <- read_excel("data/penguins.xlsx", sheet = "Torgersen Island", na = "NA")

#> Tampilkan data sheet
penguins_torgersen

# A tibble: 52 × 8
   species island    bill_length_mm bill_depth_mm flipper_length_mm body_mass_g
   <chr>   <chr>              <dbl>         <dbl>             <dbl>       <dbl>
 1 Adelie  Torgersen           39.1          18.7               181        3750
 2 Adelie  Torgersen           39.5          17.4               186        3800
 3 Adelie  Torgersen           40.3          18                 195        3250
 4 Adelie  Torgersen           NA            NA                  NA          NA
 5 Adelie  Torgersen           36.7          19.3               193        3450
 6 Adelie  Torgersen           39.3          20.6               190        3650
 7 Adelie  Torgersen           38.9          17.8               181        3625
 8 Adelie  Torgersen           39.2          19.6               195        4675
 9 Adelie  Torgersen           34.1          18.1               193        3475
10 Adelie  Torgersen           42            20.2               190        4250
# ℹ 42 more rows
# ℹ 2 more variables: sex <chr>, year <dbl>
…
4.1 Menampilkan sheet khusus google sheet

Misal dari google sheet : https://docs.google.com/spreadsheets/d/1aFu8lnD_g0yjF5O-K6SFgSEWiHPpgvFCF0NY9D6LXnY/edit#gid=0

terdapat beberapa sheet dan kita akan menampilkan data di sheet Togersen Island maka :

#> Identifikasi id sheet google sheet
penguins_sheet_id <- "1aFu8lnD_g0yjF5O-K6SFgSEWiHPpgvFCF0NY9D6LXnY"

#> Tampilkan data sheet Torgersen Island
read_sheet(penguins_sheet_id, sheet = "Torgersen Island")

# A tibble: 52 × 8
   species island    bill_length_mm bill_depth_mm flipper_length_mm body_mass_g
   <chr>   <chr>     <list>         <list>        <list>            <list>     
 1 Adelie  Torgersen <dbl [1]>      <dbl [1]>     <dbl [1]>         <dbl [1]>  
 2 Adelie  Torgersen <dbl [1]>      <dbl [1]>     <dbl [1]>         <dbl [1]>  
 3 Adelie  Torgersen <dbl [1]>      <dbl [1]>     <dbl [1]>         <dbl [1]>  
 4 Adelie  Torgersen <chr [1]>      <chr [1]>     <chr [1]>         <chr [1]>  
 5 Adelie  Torgersen <dbl [1]>      <dbl [1]>     <dbl [1]>         <dbl [1]>  
 6 Adelie  Torgersen <dbl [1]>      <dbl [1]>     <dbl [1]>         <dbl [1]>  
 7 Adelie  Torgersen <dbl [1]>      <dbl [1]>     <dbl [1]>         <dbl [1]>  
 8 Adelie  Torgersen <dbl [1]>      <dbl [1]>     <dbl [1]>         <dbl [1]>  
 9 Adelie  Torgersen <dbl [1]>      <dbl [1]>     <dbl [1]>         <dbl [1]>  
10 Adelie  Torgersen <dbl [1]>      <dbl [1]>     <dbl [1]>         <dbl [1]>  
# ℹ 42 more rows
# ℹ 2 more variables: sex <chr>, year <dbl>
…
#> Url data tabel
url <- "https://kworb.net/youtube/trending.html"
html <- read_html(url)

#> Ekstrak element tabel
table <- html |> 
  html_element("table") |> 
  html_table()

#> Tampilkan Tabel
table

# A tibble: 92 × 5
      `` ``    Video                                              `#` Highlights
   <int> <chr> <chr>                                            <int> <chr>     
 1     1 NEW   Taylor Swift - Style (Taylor's Version) (Lyric …    30 #5 Argent…
 2     2 NEW   Taylor Swift - Blank Space (Taylor's Version) (…    20 #7 Argent…
 3     3 NEW   Kenia OS - Ojo X Ojo (Video Oficial)                18 #1 Mexico…
 4     4 -2    Con To´ - Yeri Mua, Noriega, Oviña, Flow Nasty …    16 #6 Mexico…
 5     5 -4    Mal Hombre                                          16 #10 Mexic…
 6     6 NEW   Morat - Demasiado Lejos (Visualizer)                16 #16 Mexic…
 7     7 NEW   Wisin, Chencho Corleone - LOCO X PERREARTE (Off…    14 #11 Argen…
 8     8 NEW   Becky G - POR EL CONTRARIO (Lyric Video)            11 #12 Argen…
 9     9 -6    REGGAETON CHAMPAGNE - Bellakath ft Dani Flow (V…    13 #14 Mexic…
10    10 NEW   RIIZE 라이즈 'Talk Saxy' MV                         12 #13 Thail…
# ℹ 82 more rows
…
